{
    "query": "Ti",
    "suggestions": [
        "Сбербанк России",
        "ВТБ",
        "Газпромбанк",
        "Россельхозбанк",
        "Национальный Клиринговый Центр",
        "Альфа-Банк",
        "Московский Кредитный Банк",
        "Банк «ФК Открытие»",
        "Национальный Банк «Траст»",
        "Промсвязьбанк",
        "ЮниКредит Банк",
        "Райффайзенбанк",
        "Россия",
        "Росбанк",
        "Бинбанк",
        "Совкомбанк",
        "Банк «Санкт-Петербург»",
        "БМ-Банк",
        "Всероссийский Банк Развития Регионов",
        "Ситибанк",
        "Московский Областной Банк",
        "Банк Уралсиб",
        "Ак Барс",
        "СМП Банк",
        "Русский Стандарт",
        "Банк АВБ",
        "Новикомбанк",
        "Тинькофф Банк",
        "Уральский Банк Реконструкции и Развития",
        "Почта Банк",
        "Пересвет",
        "Связь-Банк",
        "Восточный Банк",
        "Российский Капитал",
        "Московский Индустриальный Банк",
        "Хоум Кредит Банк",
        "Абсолют Банк",
        "Банк «Возрождение»",
        "Сургутнефтегазбанк",
        "Банк Зенит",
        "ИНГ Банк",
        "РосЕвроБанк",
        "Экспресс-Волга",
        "ДельтаКредит",
        "МТС Банк",
        "РНКБ",
        "Инвестторгбанк",
        "Нордеа Банк",
        "Транскапиталбанк",
        "Ренессанс Кредит",
        "ОТП Банк",
        "Национальный Расчетный Депозитарий",
        "Кредит Европа Банк",
        "Сетелем Банк",
        "Авангард",
        "Глобэкс",
        "Русфинанс Банк",
        "Запсибкомбанк",
        "Банк Финсервис",
        "Росэксимбанк",
        "Таврический",
        "МСП Банк",
        "Азиатско-Тихоокеанский Банк",
        "Центр-инвест",
        "СКБ-Банк",
        "Фондсервисбанк",
        "ЦентроКредит",
        "Металлинвестбанк",
        "Росгосстрах Банк",
        "Союз",
        "Локо-Банк",
        "Кубань Кредит",
        "Аверс",
        "ВУЗ-Банк",
        "Балтинвестбанк",
        "РН Банк",
        "Эйч-Эс-Би-Си Банк (HSBC)",
        "Сумитомо Мицуи",
        "Банк Интеза",
        "Мидзухо Банк",
        "Банк Кредит Свисс",
        "Меткомбанк (Каменск-Уральский)",
        "Экспобанк",
        "Дойче Банк",
        "Аресбанк",
        "Тойота Банк",
        "Тимер Банк",
        "Эм-Ю-Эф-Джи Банк (Евразия)",
        "БКС Банк",
        "СДМ-Банк",
        "Балтийский Банк",
        "Крайинвестбанк",
        "Примсоцбанк",
        "Коммерцбанк (Евразия)",
        "ББР Банк",
        "Международный Финансовый Клуб",
        "Левобережный",
        "АйСиБиСи Банк",
        "Еврофинанс Моснарбанк",
        "БНП Париба Банк",
        "Севергазбанк",
        "Челябинвестбанк",
        "Социнвестбанк",
        "Челиндбанк",
        "СЭБ Банк",
        "Фора-Банк",
        "Мир Бизнес Банк",
        "Креди Агриколь КИБ",
        "Генбанк",
        "Газэнергобанк",
        "Данске Банк",
        "Энерготрансбанк",
        "Саровбизнесбанк",
        "Объединенный Капитал",
        "Интерпрогрессбанк",
        "Международный Банк Санкт-Петербурга (МБСП)",
        "Финанс Бизнес Банк",
        "Дж. П. Морган Банк",
        "БыстроБанк",
        "Кольцо Урала",
        "Платежный Центр",
        "Алмазэргиэнбанк",
        "Бэнк оф Чайна",
        "Дальневосточный Банк",
        "Солидарность (Самара)",
        "БМВ Банк",
        "Фольксваген Банк Рус",
        "Плюс Банк",
        "Национальный Стандарт",
        "Кредит Урал Банк",
        "НС Банк",
        "Приморье",
        "ЦМРБанк",
        "Интерпромбанк",
        "Ланта-Банк",
        "Девон-Кредит",
        "Мерседес-Бенц Банк Рус",
        "Бинбанк Диджитал",
        "Киви Банк",
        "Татсоцбанк",
        "Курскпромбанк",
        "Урал ФД",
        "Акибанк",
        "Хлынов",
        "Петербургский Социальный Коммерческий Банк",
        "Экономбанк",
        "Энергобанк",
        "Чайна Констракшн",
        "Агропромкредит",
        "Собинбанк",
        "Инбанк",
        "Роскомснаббанк (бывш. Башкомснаббанк)",
        "Москоммерцбанк",
        "Тольяттихимбанк",
        "Держава",
        "Александровский",
        "НБД-Банк",
        "Московское Ипотечное Агентство",
        "Липецккомбанк",
        "Кошелев-Банк",
        "Денизбанк Москва",
        "Акцепт",
        "Джей энд Ти Банк",
        "МС Банк Рус",
        "Пойдем!",
        "Алеф-Банк",
        "Натиксис Банк",
        "НК Банк",
        "Ури Банк",
        "Прио-Внешторгбанк",
        "Гарант-Инвест",
        "Нацинвестпромбанк",
        "Модульбанк",
        "Росдорбанк",
        "Форштадт",
        "Норвик Банк",
        "Развитие-Столица",
        "Национальный Резервный Банк",
        "Банк Казани",
        "Национальная Факторинговая Компания",
        "Российская Финансовая Корпорация",
        "Морской Банк",
        "Ишбанк",
        "Ассоциация",
        "Консервативный Коммерческий Банк",
        "Нижневолжский Коммерческий Банк",
        "Руснарбанк",
        "КС Банк",
        "МБА-Москва",
        "Русский Ипотечный Банк",
        "Уралтрансбанк",
        "Нико-Банк",
        "Современный Коммерческий Инновационный Банк",
        "БайкалИнвестБанк",
        "ТЭМБР-Банк",
        "Первомайский",
        "Оренбург",
        "Агросоюз",
        "Юг-Инвестбанк",
        "КЭБ ЭйчЭнБи Банк",
        "Ижкомбанк",
        "Тройка-Д Банк",
        "Солид Банк",
        "Снежинский",
        "Промтрансбанк",
        "Банк Раунд",
        "Екатеринбург",
        "Русьуниверсалбанк",
        "Углеметбанк",
        "Банк Жилищного Финансирования",
        "Морган Стэнли Банк",
        "РЕСО Кредит",
        "Яндекс.Деньги",
        "Автоторгбанк",
        "Ю Би Эс Банк",
        "ФорБанк",
        "Кранбанк",
        "Кузнецкбизнесбанк",
        "Томскпромстройбанк",
        "Московский Нефтехимический Банк",
        "Энергомашбанк",
        "Белгородсоцбанк",
        "Хакасский Муниципальный Банк",
        "Эксперт Банк",
        "Актив Банк",
        "Зираат Банк",
        "Финам Банк",
        "Нейва",
        "Трансстройбанк",
        "Эс-Би-Ай Банк (бывш. ЯР-Банк)",
        "СИАБ",
        "Азия-Инвест Банк",
        "Славия",
        "Ставропольпромстройбанк",
        "Ростфинанс",
        "Сибсоцбанк",
        "Нефтепромбанк",
        "Новобанк",
        "Северный Народный Банк",
        "Банк Сберегательно-кредитного сервиса",
        "Банк БКФ",
        "Чайнасельхозбанк",
        "Проминвестбанк",
        "Союзный",
        "Сити Инвест Банк",
        "Муниципальный Камчатпрофитбанк",
        "Земский Банк",
        "Автоградбанк",
        "Русь",
        "Коммерческий Индо Банк",
        "Вокбанк",
        "Гута-Банк",
        "Агророс",
        "Газтрансбанк",
        "Чувашкредитпромбанк",
        "Славянский Кредит",
        "Альба Альянс",
        "Банк Оранжевый",
        "Венец",
        "Енисейский Объединенный Банк",
        "Бест Эффортс Банк",
        "Кузнецкий",
        "Севастопольский Морской Банк",
        "Черноморский банк развития и реконструкции",
        "Голдман Сакс Банк",
        "Зенит Сочи",
        "Индустриальный Сберегательный Банк",
        "Банк ПСА Финанс Рус",
        "Камский Коммерческий Банк",
        "Горбанк",
        "Платина",
        "Руссобанк",
        "Инкахран",
        "Роял Кредит Банк",
        "Стройлесбанк",
        "Гранд Инвест Банк",
        "Банк Инноваций и Развития",
        "Москва-Сити",
        "Кубаньторгбанк",
        "Нэклис-Банк",
        "Донкомбанк",
        "Московский Коммерческий Банк",
        "Вологжанин",
        "Аксонбанк",
        "Мегаполис",
        "Братский АНКБ",
        "Радиотехбанк",
        "Межрегиональный промышленно-строительный банк",
        "Экси-Банк",
        "Долинск",
        "Объединенный Резервный Банк",
        "ЮМК",
        "УМ-Банк",
        "Банкхаус Эрбе",
        "Икано Банк",
        "Алтайкапиталбанк",
        "Кремлевский",
        "НОКССбанк",
        "ВостСибтранскомбанк",
        "Санкт-Петербургский Банк Инвестиций",
        "Донхлеббанк",
        "Иваново",
        "Итуруп",
        "Юнистрим",
        "Крокус-Банк",
        "Витабанк",
        "Оргбанк",
        "Уралфинанс",
        "Современные Стандарты Бизнеса",
        "Камчаткомагропромбанк",
        "Еврокапитал-Альянс",
        "Евразийский Банк",
        "Банк Реалист (бывш. МПБ)",
        "ИТ Банк",
        "Международный Коммерческий Банк",
        "Заречье",
        "Владбизнесбанк",
        "Унифондбанк",
        "Живаго Банк",
        "Уралпромбанк",
        "ПИР Банк",
        "Ермак",
        "Евроальянс",
        "Инкаробанк",
        "Далена Банк",
        "БСТ-Банк",
        "Заубер Банк",
        "Первый Клиентский Банк",
        "Система",
        "ФФин Банк",
        "Синко-Банк",
        "Тамбовкредитпромбанк",
        "Банк Торгового Финансирования",
        "РАМ Банк (бывш. Банк БЦК-Москва)",
        "ПэйПал Ру",
        "Костромаселькомбанк",
        "Кузнецкий Мост",
        "Взаимодействие",
        "Центрально-Европейский Банк",
        "Сельмашбанк",
        "Викинг",
        "Внешфинбанк",
        "Невский Банк",
        "Веста",
        "Вестерн Юнион ДП Восток",
        "Газнефтьбанк",
        "РБА",
        "Йошкар-Ола",
        "Кемсоцинбанк",
        "Новый Век",
        "Америкэн Экспресс Банк",
        "Приобье",
        "РТС-Банк",
        "Старооскольский Агропромбанк",
        "Пермь",
        "Элита",
        "Аспект",
        "Народный Банк",
        "Первоуральскбанк",
        "Кетовский Коммерческий Банк",
        "Оней Банк",
        "Вкабанк",
        "Новокиб",
        "Банк Глобус",
        "Яринтербанк",
        "Кросна-Банк",
        "Инвестсоцбанк",
        "ИРС",
        "К2 Банк",
        "Профессионал Банк (бывш. Наш Дом)",
        "Первый Инвестиционный Банк (бывш. Алма-Банк)",
        "Столичный Кредит",
        "Промышленно-Финансовое Сотрудничество",
        "Социум-Банк",
        "Великие Луки Банк",
        "Капитал",
        "Майкопбанк",
        "Кредпромбанк",
        "Арзамас",
        "Экономикс-Банк",
        "Россита-Банк",
        "Первый Дортрансбанк",
        "Саратов",
        "Спутник",
        "Тендер-Банк",
        "Спиритбанк",
        "Прайм Финанс",
        "Народный Доверительный Банк",
        "Земкомбанк",
        "КОР",
        "Дом-Банк",
        "Новый Московский Банк",
        "Калуга",
        "Межбанковский Кредитный Союз",
        "Руна-Банк",
        "Республиканский Кредитный Альянс",
        "Крона-Банк",
        "Росбизнесбанк",
        "Торжокуниверсалбанк",
        "Примтеркомбанк",
        "Ноосфера",
        "Нальчик",
        "Кузбассхимбанк",
        "Проинвестбанк",
        "АвтоКредитБанк",
        "ИК Банк",
        "Промсельхозбанк",
        "Национальный Банк Взаимного Кредита",
        "Евроазиатский Инвестиционный Банк",
        "Апабанк",
        "Прохладный",
        "Почтобанк",
        "Вакобанк",
        "Алтынбанк",
        "Курган",
        "Мобильная карта",
        "ВРБ",
        "Банк РМП",
        "Риал-Кредит",
        "Тексбанк",
        "Московский Вексельный Банк",
        "Русский Банк Сбережений",
        "Златкомбанк",
        "Сервис Резерв",
        "Невастройинвест",
        "Банк Агора",
        "Химик",
        "Дон-Тексбанк",
        "Космос",
        "Саммит Банк",
        "Спецстройбанк",
        "Майский",
        "ЕАТП Банк",
        "МТИ-Банк",
        "Международный Расчетный Банк",
        "Металлург",
        "Холмск",
        "РФИ Банк",
        "Байкалкредобанк",
        "Максима",
        "Соколовский",
        "Москва",
        "Синергия",
        "Московский Клиринговый Центр",
        "Стандарт-Кредит",
        "Кредитинвест",
        "Народный Инвестиционный Банк",
        "Новое Время",
        "ГринКомБанк",
        "Классик Эконом Банк",
        "Мурманский Социальный Коммерческий Банк",
        "Флора-Москва",
        "Балаково-Банк",
        "Михайловский ПЖСБ",
        "Новый Промышленный Банк",
        "Национальный Банк Сбережений",
        "Банк РСИ",
        "Мурманский Расчетный Центр",
        "Холдинвестбанк",
        "Объединенный Банк Республики",
        "Центрально-Азиатский",
        "Акрополь",
        "Севзапинвестпромбанк",
        "РусьРегионБанк",
        "РИБ",
        "Прокоммерцбанк",
        "Монета.ру",
        "Славянбанк",
        "Расчетные Решения",
        "Гефест",
        "Вятич",
        "Онего",
        "Финчер",
        "Геобанк",
        "МВС Банк",
        "Ресурс-Траст",
        "Рента-Банк",
        "Единая касса",
        "Жилстройбанк",
        "Эко-Инвест",
        "Таганрогбанк",
        "Лэнд-Банк",
        "Си Ди Би Банк",
        "Дружба",
        "Народный Банк Тувы",
        "Континенталь",
        "Жилкредит",
        "Берейт",
        "Северстройбанк",
        "Тайдон",
        "Единая Расчетная Палата",
        "Объединенная Расчетная Система",
        "Альтернатива",
        "Деньги.Мэйл.Ру",
        "Промсвязьинвест",
        "Русское Финансовое Общество",
        "Сетевая Расчетная Палата",
        "Рунэтбанк",
        "ПэйЮ",
        "Нарат",
        "Электронный платежный сервис",
        "Глобал Эксчейндж",
        "Красноярский Краевой Расчетный Центр",
        "Платежный Стандарт",
        "Моби.Деньги",
        "Расчетная Палата СВМБ",
        "Петербургский Расчетный Центр",
        "Вест",
        "Р-Инкас",
        "Дальний Восток",
        "Премиум",
        "Элплат",
        "Перспектива",
        "Инновационный Расчетный Центр",
        "Инэко",
        "Частный Расчетно-Кассовый Центр",
        "АРБ-Инкасс",
        "21 Век"
    ]
}